Predicting party identification using socioeconomic characterisitcs
…
anes_rf_final_wf <- 
  anes_rf_final |>
  extract_workflow()

anes_rf_predictions <- 
  predict(anes_rf_final_wf, new_data = anes_test) |>
  bind_cols(
    predict(anes_rf_final_wf, new_data = anes_test, type = "prob"),
    anes_test |>
    select(VCF0302)
  )

select(anes_rf_predictions, VCF0302, starts_with(".pred"))

# A tibble: 2,436 × 7
   VCF0302 .pred_class .pred_1 .pred_2 .pred_3 .pred_4 .pred_5
   <fct>   <fct>         <dbl>   <dbl>   <dbl>   <dbl>   <dbl>
 1 2       1            0.605    0.272  0.039   0.0125  0.0718
 2 5       5            0.0268   0.309  0.011   0.0147  0.638 
 3 2       5            0.272    0.286  0.065   0.0318  0.345 
 4 5       5            0.148    0.278  0.0848  0.014   0.475 
 5 5       5            0.0815   0.313  0.067   0.0225  0.516 
 6 2       5            0.104    0.328  0.0627  0.0365  0.469 
 7 5       5            0.171    0.270  0.037   0.016   0.507 
 8 1       2            0.201    0.353  0.0758  0.0305  0.340 
 9 5       5            0.128    0.325  0.0523  0.0345  0.460 
10 3       5            0.109    0.260  0.0603  0.0118  0.560 
# ℹ 2,426 more rows
…
anes_bagged_trees_resamples <- 
  anes_bagged_trees_wf |>
  tune_grid(
    resamples = anes_bagged_folds,
    grid = anes_bagged_grid
  )

collect_metrics(anes_bagged_trees_resamples) 

# A tibble: 27 × 8
   cost_complexity tree_depth .metric     .estimator  mean     n std_err .config
             <dbl>      <int> <chr>       <chr>      <dbl> <int>   <dbl> <chr>  
 1    0.0000000001          1 accuracy    multiclass 0.615     5 0.00771 Prepro…
 2    0.0000000001          1 brier_class multiclass 0.268     5 0.00448 Prepro…
 3    0.0000000001          1 roc_auc     hand_till  0.622     5 0.0122  Prepro…
 4    0.00000316            1 accuracy    multiclass 0.616     5 0.00923 Prepro…
 5    0.00000316            1 brier_class multiclass 0.267     5 0.00391 Prepro…
 6    0.00000316            1 roc_auc     hand_till  0.625     5 0.00721 Prepro…
 7    0.1                   1 accuracy    multiclass 0.615     5 0.00771 Prepro…
 8    0.1                   1 brier_class multiclass 0.266     5 0.00383 Prepro…
 9    0.1                   1 roc_auc     hand_till  0.641     5 0.00991 Prepro…
10    0.0000000001          8 accuracy    multiclass 0.665     5 0.00618 Prepro…
# ℹ 17 more rows
…
anes_bagged_fitted_wf <- 
  anes_bagged_finalized_fit |>
  extract_workflow()

anes_bagged_predictions <-
  predict(anes_bagged_fitted_wf, new_data = anes_test) |>
  bind_cols(
    predict(anes_bagged_fitted_wf, new_data = anes_test, type = "prob"),
    anes_test |>
    select(VCF0302)
  )

select(anes_bagged_predictions, VCF0302, .pred_class, starts_with(".pred"))

# A tibble: 2,436 × 7
   VCF0302 .pred_class .pred_1 .pred_2 .pred_3  .pred_4 .pred_5
   <fct>   <fct>         <dbl>   <dbl>   <dbl>    <dbl>   <dbl>
 1 2       1            0.815    0.130 0.0139  0.00976   0.0313
 2 5       5            0.0216   0.264 0.0129  0.00660   0.695 
 3 2       2            0.231    0.378 0.0629  0.0184    0.309 
 4 5       5            0.250    0.328 0.0620  0.0182    0.341 
 5 5       5            0.0680   0.286 0.00764 0.00560   0.633 
 6 2       2            0.0321   0.429 0.112   0.0416    0.386 
 7 5       5            0.0242   0.146 0.0196  0.00577   0.804 
 8 1       2            0.243    0.365 0.0450  0.0292    0.318 
 9 5       5            0.0389   0.431 0.0236  0.0598    0.447 
10 3       2            0.242    0.480 0.178   0.000565  0.100 
# ℹ 2,426 more rows
…
kgss_final_wf <- 
  kgss_rf_final |>
  extract_workflow()

kgss_rf_predictions <-
  predict(kgss_final_wf, new_data = kgss_test) |>
  bind_cols(
    predict(kgss_final_wf, new_data = kgss_test, type = "prob"),
    kgss_test |>
    select(PARTYLR)
  )

select(kgss_rf_predictions, PARTYLR, .pred_class, starts_with(".pred"))

# A tibble: 5,211 × 8
   PARTYLR .pred_class .pred_1 .pred_3 .pred_4 .pred_5 .pred_6 .pred_7
   <fct>   <fct>         <dbl>   <dbl>   <dbl>   <dbl>   <dbl>   <dbl>
 1 6       4            0.0354  0.0687   0.310   0.260   0.271  0.0552
 2 4       4            0.0470  0.0491   0.322   0.223   0.314  0.0444
 3 4       6            0.0291  0.0327   0.255   0.255   0.352  0.0758
 4 5       6            0.0800  0.0327   0.276   0.274   0.309  0.0282
 5 6       6            0.0505  0.0316   0.204   0.302   0.354  0.0589
 6 5       4            0.0348  0.0399   0.503   0.206   0.192  0.0237
 7 6       6            0.0745  0.0574   0.110   0.236   0.387  0.135 
 8 4       4            0.0283  0.0317   0.351   0.258   0.303  0.0281
 9 4       4            0.0328  0.100    0.335   0.256   0.255  0.0204
10 5       6            0.0304  0.0314   0.173   0.258   0.355  0.152 
# ℹ 5,201 more rows
…
